Healthcare Fraud Detection
…
Scaled1Sum <- Scaled1 %>% dplyr::group_by(DRGState, Hospital.Referral.Region.Description) %>%
  dplyr::summarise(Count = n(),
                   ScCovMedDiff = sum(ScCovMedDiff),
                   ScPayCovDiff = sum(ScPayCovDiff),
                   ScPayMedDiff = sum(ScPayMedDiff),
                   ScPayperDis = sum(ScPayperDis)) 

Scaled1Sum %>% dplyr::arrange(desc(ScCovMedDiff)) %>% top_n(10, -ScCovMedDiff) #9/10 CovMedicare diff in Boston area of MA

## # A tibble: 28,557 x 7
## # Groups:   DRGState [5,025]
##    DRGState Hospital.Referr~ Count ScCovMedDiff ScPayCovDiff ScPayMedDiff
##    <chr>    <fct>            <int>        <dbl>        <dbl>        <dbl>
##  1 MA_378 ~ MA - Boston         40         47.0         41.9        -6.99
##  2 MA_190 ~ MA - Boston         39         44.2         42.1        -1.39
##  3 MA_292 ~ MA - Boston         39         43.4         33.2       -17.2 
##  4 GA_292 ~ GA - Atlanta        49         39.7         42.4         7.54
##  5 MA_065 ~ MA - Boston         37         39.6         35.7        -5.28
##  6 MA_872 ~ MA - Boston         36         39.4         35.5        -5.25
##  7 MA_683 ~ MA - Boston         39         39.2         36.2        -3.58
##  8 MA_189 ~ MA - Boston         34         38.8         25.7       -23.0 
##  9 MA_194 ~ MA - Boston         39         37.3         33.2        -5.71
## 10 MA_389 ~ MA - Boston         35         36.4         33.6        -3.42
## # ... with 28,547 more rows, and 1 more variable: ScPayperDis <dbl>

Scaled1Sum %>% dplyr::arrange(ScCovMedDiff) %>% top_n(10,ScCovMedDiff) #9/10 on california

## # A tibble: 28,557 x 7
## # Groups:   DRGState [5,025]
##    DRGState Hospital.Referr~ Count ScCovMedDiff ScPayCovDiff ScPayMedDiff
##    <chr>    <fct>            <int>        <dbl>        <dbl>        <dbl>
##  1 GA_470 ~ GA - Atlanta        41        -52.5        -53.6        -5.09
##  2 GA_208 ~ GA - Atlanta        33        -50.2        -44.2         8.65
##  3 GA_871 ~ GA - Atlanta        49        -46.8        -55.0       -18.3 
##  4 MA_470 ~ MA - Boston         40        -42.3        -35.0        11.6 
##  5 AZ_871 ~ AZ - Phoenix        29        -40.9        -38.2         2.84
##  6 TN_208 ~ TN - Nashville      25        -38.8        -36.2         2.74
##  7 MA_310 ~ MA - Boston         38        -38.4        -31.0        12.0 
##  8 MA_330 ~ MA - Boston         35        -38.1        -32.3         9.01
##  9 GA_177 ~ GA - Atlanta        31        -37.8        -37.3        -1.30
## 10 GA_330 ~ GA - Atlanta        28        -37.2        -33.5         4.80
## # ... with 28,547 more rows, and 1 more variable: ScPayperDis <dbl>

Scaled1Sum %>% dplyr::arrange(desc(ScPayCovDiff)) %>% top_n(10,-ScPayCovDiff) #7/10 in MA, rest from GA

## # A tibble: 28,557 x 7
## # Groups:   DRGState [5,025]
##    DRGState Hospital.Referr~ Count ScCovMedDiff ScPayCovDiff ScPayMedDiff
##    <chr>    <fct>            <int>        <dbl>        <dbl>        <dbl>
##  1 GA_292 ~ GA - Atlanta        49         39.7         42.4         7.54
##  2 MA_190 ~ MA - Boston         39         44.2         42.1        -1.39
##  3 MA_378 ~ MA - Boston         40         47.0         41.9        -6.99
##  4 GA_190 ~ GA - Atlanta        46         32.7         36.6         9.45
##  5 MA_683 ~ MA - Boston         39         39.2         36.2        -3.58
##  6 MA_065 ~ MA - Boston         37         39.6         35.7        -5.28
##  7 MA_872 ~ MA - Boston         36         39.4         35.5        -5.25
##  8 MA_389 ~ MA - Boston         35         36.4         33.6        -3.42
##  9 MA_194 ~ MA - Boston         39         37.3         33.2        -5.71
## 10 MA_292 ~ MA - Boston         39         43.4         33.2       -17.2 
## # ... with 28,547 more rows, and 1 more variable: ScPayperDis <dbl>

Scaled1Sum %>% dplyr::arrange(ScPayCovDiff) %>% top_n(10,ScPayCovDiff) #5/10 in GA Rest in less populous states

## # A tibble: 28,557 x 7
## # Groups:   DRGState [5,025]
##    DRGState Hospital.Referr~ Count ScCovMedDiff ScPayCovDiff ScPayMedDiff
##    <chr>    <fct>            <int>        <dbl>        <dbl>        <dbl>
##  1 GA_871 ~ GA - Atlanta        49       -46.8         -55.0       -18.3 
##  2 GA_470 ~ GA - Atlanta        41       -52.5         -53.6        -5.09
##  3 GA_481 ~ GA - Atlanta        35       -32.9         -51.5       -37.8 
##  4 GA_208 ~ GA - Atlanta        33       -50.2         -44.2         8.65
##  5 OK_470 ~ OK - Oklahoma C~    26       -28.8         -38.8       -20.8 
##  6 TN_871 ~ TN - Nashville      33        -7.07        -38.5       -60.9 
##  7 AZ_871 ~ AZ - Phoenix        29       -40.9         -38.2         2.84
##  8 AZ_470 ~ AZ - Phoenix        29       -35.4         -37.7        -6.49
##  9 GA_177 ~ GA - Atlanta        31       -37.8         -37.3        -1.30
## 10 TN_470 ~ TN - Nashville      26       -32.9         -36.8        -9.26
## # ... with 28,547 more rows, and 1 more variable: ScPayperDis <dbl>

Scaled1Sum %>% dplyr::arrange(desc(ScPayMedDiff)) %>% top_n(10,-ScPayMedDiff) #4/10 in AL, 4/10 in GA

## # A tibble: 28,557 x 7
## # Groups:   DRGState [5,025]
##    DRGState Hospital.Referr~ Count ScCovMedDiff ScPayCovDiff ScPayMedDiff
##    <chr>    <fct>            <int>        <dbl>        <dbl>        <dbl>
##  1 AL_192 ~ AL - Birmingham     37        -5.75        2.01          14.6
##  2 GA_310 ~ GA - Atlanta        36        -7.37        0.251         14.2
##  3 AL_195 ~ AL - Birmingham     33        -3.28        4.09          14.0
##  4 GA_313 ~ GA - Atlanta        37        -1.87        5.44          13.9
##  5 AL_392 ~ AL - Birmingham     36        -5.16        2.21          13.9
##  6 AL_603 ~ AL - Birmingham     31         3.88       10.9           13.7
##  7 GA_812 ~ GA - Atlanta        39        14.5        21.1           13.5
##  8 TN_195 ~ TN - Nashville      33        -1.41        5.20          12.6
##  9 NJ_563 ~ NJ - Camden         16        -7.87       -1.24          12.3
## 10 GA_312 ~ GA - Atlanta        38         8.41       14.5           12.1
## # ... with 28,547 more rows, and 1 more variable: ScPayperDis <dbl>

Scaled1Sum %>% dplyr::arrange(ScPayMedDiff) %>% top_n(10, ScPayMedDiff) #All 10 states in the south

## # A tibble: 28,557 x 7
## # Groups:   DRGState [5,025]
##    DRGState Hospital.Referr~ Count ScCovMedDiff ScPayCovDiff ScPayMedDiff
##    <chr>    <fct>            <int>        <dbl>        <dbl>        <dbl>
##  1 TN_871 ~ TN - Nashville      33        -7.07       -38.5         -60.9
##  2 AL_871 ~ AL - Birmingham     34         8.99       -22.6         -60.2
##  3 GA_280 ~ GA - Atlanta        29        -4.00       -31.5         -53.1
##  4 TN_871 ~ TN - Knoxville      22        16.1         -8.63        -46.7
##  5 AL_481 ~ AL - Birmingham     22         5.95       -18.4         -46.5
##  6 GA_377 ~ GA - Atlanta        27        -6.40       -29.8         -45.4
##  7 AZ_291 ~ AZ - Phoenix        26         3.42       -19.9         -44.7
##  8 GA_314 ~ GA - Atlanta        27       -11.7        -34.0         -43.5
##  9 TN_314 ~ TN - Nashville      15         1.11       -21.2         -42.8
## 10 AL_064 ~ AL - Birmingham     19         6.43       -16.0         -42.7
## # ... with 28,547 more rows, and 1 more variable: ScPayperDis <dbl>
…
##Mapping top medicare payments
#Overall
TotPaymMed1 <- payment %>% dplyr::group_by(DRG.Definition) %>%
  dplyr::summarise(Count = n(),
                   TotPay = sum(Average.Total.Payments),
                   TotCov = sum(Average.Covered.Charges),
                   TotMed = sum(Average.Medicare.Payments/1000),
                   TotDis = sum(Total.Discharges),
                   PayMed = (sum(Average.Total.Payments)-sum(Average.Medicare.Payments))/1000) %>%
  dplyr::arrange(desc(PayMed))

TotPaymMed1

## # A tibble: 100 x 7
##    DRG.Definition                 Count  TotPay TotCov TotMed TotDis PayMed
##    <fct>                          <int>   <dbl>  <dbl>  <dbl>  <int>  <dbl>
##  1 310 - CARDIAC ARRHYTHMIA & CO~  2403  1.40e8 1.67e8 1.10e5 113454 30283.
##  2 195 - SIMPLE PNEUMONIA & PLEU~  2576  1.91e8 1.65e8 1.62e5  79873 28904.
##  3 392 - ESOPHAGITIS, GASTROENT ~  2950  2.27e8 1.89e8 1.99e5 244854 28640.
##  4 313 - CHEST PAIN                2230  1.29e8 1.46e8 1.03e5 131079 26011.
##  5 192 - CHRONIC OBSTRUCTIVE PUL~  2671  2.03e8 1.74e8 1.78e5 114790 25127.
##  6 603 - CELLULITIS W/O MCC        2807  2.51e8 1.80e8 2.27e5 140894 23564.
##  7 069 - TRANSIENT ISCHEMIA        1962  1.53e8 1.26e8 1.33e5  79590 20748.
##  8 641 - MISC DISORDERS OF NUTRI~  2899  2.09e8 1.96e8 1.89e5 153660 20401.
##  9 066 - INTRACRANIAL HEMORRHAGE~  1806  1.59e8 1.21e8 1.39e5  55849 19585.
## 10 390 - G.I. OBSTRUCTION W/O CC~  1438  9.63e7 9.10e7 7.71e4  31249 19178.
## # ... with 90 more rows
…
